<?xml version="1.0" encoding="utf-8"?>
<!-- Generator: Adobe Illustrator 16.0.0, SVG Export Plug-In . SVG Version: 6.00 Build 0)  -->
<!DOCTYPE svg PUBLIC "-//W3C//DTD SVG 1.1//EN" "http://www.w3.org/Graphics/SVG/1.1/DTD/svg11.dtd">
<svg version="1.1" id="Слой_1" xmlns="http://www.w3.org/2000/svg" xmlns:xlink="http://www.w3.org/1999/xlink" x="0px" y="0px"
	 width="50px" height="50px" viewBox="0 0 50 50" enable-background="new 0 0 50 50" xml:space="preserve">
<g>
	<path fill="#BD632F" d="M28.188,7.274c-0.292,0.383-0.565,0.742-0.857,1.124c-2.444-1.763-5.124-2.406-8.054-1.825
		c-2.369,0.471-4.32,1.676-5.836,3.559c-3.087,3.836-2.939,9.238,0.342,12.957c3.168,3.591,8.586,4.384,12.681,1.897
		c4.122-2.503,6.391-8.153,3.573-13.515c0.4-0.229,0.803-0.457,1.237-0.707c1.001,1.772,1.477,3.641,1.481,5.625
		c0.006,1.972-0.475,3.828-1.439,5.584c1.438,1.427,2.855,2.835,4.298,4.267c-0.369,0.352-0.709,0.67-1.046,0.988
		c-1.313-1.316-2.645-2.651-3.838-3.849c-0.836,0.84-1.62,1.629-2.403,2.416c-0.067-0.047-0.137-0.094-0.203-0.143
		c0.103,0.115,0.2,0.232,0.308,0.342c3.707,3.709,7.417,7.412,11.118,11.125c0.451,0.453,0.948,0.75,1.602,0.656
		c0.688-0.098,1.174-0.484,1.4-1.141c0.228-0.654,0.083-1.262-0.402-1.758c-0.785-0.805-1.585-1.594-2.381-2.387
		c-1.37-1.369-2.74-2.736-4.136-4.129c0.359-0.334,0.7-0.648,1.114-1.031c0.738,0.752,1.516,1.541,2.385,2.426
		c0-2.811,0-5.486,0-8.192c0.5,0,0.948,0,1.471,0c0,0.205,0,0.394,0,0.58c0,2.882-0.008,5.764,0.015,8.645
		c0.002,0.256,0.134,0.566,0.31,0.756c0.677,0.727,1.391,1.418,2.097,2.115c1.038,1.027,1.406,2.232,0.852,3.605
		c-0.547,1.35-1.623,1.979-3.066,2.002c-0.047,0-0.094,0.014-0.191,0.027c0,3.555,0,7.111,0,10.701c-8.021,0-15.987,0-23.98,0
		c0-0.465,0-0.912,0-1.432c3.747,0,7.482,0,11.221,0c3.74,0,7.481,0,11.255,0c0.011-0.205,0.023-0.363,0.023-0.523
		c0.001-2.963-0.003-5.926,0.007-8.889c0.001-0.301-0.074-0.51-0.31-0.711c-0.418-0.359-0.799-0.766-1.189-1.158
		c-3.592-3.592-7.183-7.186-10.8-10.803c-3.313,1.703-6.711,1.936-10.154,0.463c-2.582-1.104-4.498-2.958-5.748-5.472
		c-2.457-4.948-0.984-10.998,3.455-14.295C18.934,3.81,24.765,4.481,28.188,7.274z"/>
	<path fill="#BD632F" d="M21.243,24.963c-4.725-0.006-8.568-3.865-8.555-8.588c0.014-4.714,3.891-8.561,8.61-8.541
		c4.7,0.019,8.521,3.863,8.521,8.572C29.817,21.142,25.98,24.969,21.243,24.963z M21.258,23.497c3.912-0.001,7.075-3.154,7.09-7.066
		c0.016-3.922-3.173-7.129-7.09-7.127c-3.91,0-7.113,3.214-7.103,7.127C14.167,20.32,17.358,23.499,21.258,23.497z"/>
	<path fill="#BD632F" d="M40.583,20.034c-0.495,0-0.944,0-1.438,0c0-3.893,0-7.759,0-11.688c-2.295,0-4.545,0-6.854,0
		c0-2.313,0-4.563,0-6.858c-3.813,0-7.564,0-11.352,0c0-0.504,0-0.964,0-1.481c0.187,0,0.359,0,0.533,0
		c3.792,0,7.584,0.004,11.375-0.006c0.337-0.002,0.569,0.098,0.808,0.336c2.2,2.219,4.417,4.42,6.615,6.642
		c0.164,0.165,0.315,0.435,0.316,0.655c0.019,4.02,0.014,8.039,0.013,12.06C40.601,19.788,40.592,19.883,40.583,20.034z
		 M33.779,2.697c0,1.369,0,2.742,0,4.115c1.415,0,2.797,0,4.104,0C36.528,5.454,35.16,4.081,33.779,2.697z"/>
	<path fill="#BD632F" d="M7.321,22.12c-0.531,0-0.969,0-1.442,0c0-7.361,0-14.709,0-22.085c4.5,0,9,0,13.528,0
		c0,0.464,0,0.912,0,1.412c-4.002,0-8.014,0-12.084,0C7.321,8.357,7.321,15.215,7.321,22.12z"/>
	<path fill="#BD632F" d="M5.868,50c0-8.809,0-17.576,0-26.369c0.477,0,0.926,0,1.416,0c0,8.292,0,16.572,0,24.906
		c2.619,0,5.196,0,7.813,0c0,0.512,0,0.971,0,1.463C12.034,50,8.968,50,5.868,50z"/>
	<path fill="#BD632F" d="M16.297,43.928c0-0.469,0-0.916,0-1.396c2.919,0,5.819,0,8.754,0c0,0.457,0,0.904,0,1.396
		C22.157,43.928,19.259,43.928,16.297,43.928z"/>
	<path fill="#BD632F" d="M11.502,34.539c0-0.479,0-0.928,0-1.404c2.015,0,4.004,0,6.02,0c0,0.479,0,0.926,0,1.404
		C15.52,34.539,13.543,34.539,11.502,34.539z"/>
	<path fill="#BD632F" d="M27.994,33.143c0,0.475,0,0.922,0,1.398c-2.011,0-3.999,0-6.015,0c0-0.467,0-0.914,0-1.398
		C23.97,33.143,25.957,33.143,27.994,33.143z"/>
	<path fill="#BD632F" d="M29.946,36.27c0,0.488,0,0.936,0,1.41c-2.002,0-3.978,0-5.996,0c0-0.459,0-0.916,0-1.41
		C25.934,36.27,27.923,36.27,29.946,36.27z"/>
	<path fill="#BD632F" d="M17.319,40.813c-1.938,0-3.846,0-5.798,0c0-0.463,0-0.92,0-1.41c1.919,0,3.843,0,5.798,0
		C17.319,39.855,17.319,40.303,17.319,40.813z"/>
	<path fill="#BD632F" d="M21.794,39.391c1.949,0,3.862,0,5.803,0c0,0.469,0,0.918,0,1.408c-1.918,0-3.841,0-5.803,0
		C21.794,40.346,21.794,39.889,21.794,39.391z"/>
	<path fill="#BD632F" d="M11.501,37.672c0-0.479,0-0.928,0-1.404c1.851,0,3.678,0,5.531,0c0,0.479,0,0.926,0,1.404
		C15.194,37.672,13.38,37.672,11.501,37.672z"/>
	<path fill="#BD632F" d="M18.552,37.678c0-0.492,0-0.941,0-1.414c1.29,0,2.553,0,3.854,0c0,0.465,0,0.924,0,1.414
		C21.124,37.678,19.862,37.678,18.552,37.678z"/>
	<path fill="#BD632F" d="M11.507,43.93c0-0.459,0-0.908,0-1.395c1.079,0,2.158,0,3.27,0c0,0.457,0,0.904,0,1.395
		C13.692,43.93,12.614,43.93,11.507,43.93z"/>
	<path fill="#BD632F" d="M32.061,39.393c0.979,0,1.914,0,2.874,0c0,0.473,0,0.92,0,1.406c-0.946,0-1.894,0-2.874,0
		C32.061,40.342,32.061,39.885,32.061,39.393z"/>
	<path fill="#BD632F" d="M30.436,9.443c-0.429,0.323-0.788,0.597-1.166,0.883c-0.304-0.344-0.582-0.657-0.897-1.014
		c0.365-0.298,0.727-0.593,1.134-0.925C29.744,8.658,30.07,9.029,30.436,9.443z"/>
	<path fill="#BD632F" d="M20.456,33.139c0,0.469,0,0.916,0,1.398c-0.473,0-0.932,0-1.416,0c0-0.471,0-0.918,0-1.398
		C19.513,33.139,19.971,33.139,20.456,33.139z"/>
	<path fill="#BD632F" d="M18.842,40.805c0-0.48,0-0.93,0-1.406c0.47,0,0.918,0,1.407,0c0,0.455,0,0.914,0,1.406
		C19.793,40.805,19.346,40.805,18.842,40.805z"/>
	<path fill="#BD632F" d="M30.541,39.393c0,0.482,0,0.93,0,1.412c-0.475,0-0.933,0-1.419,0c0-0.473,0-0.932,0-1.412
		C29.592,39.393,30.039,39.393,30.541,39.393z"/>
	<path fill="none" d="M21.258,23.497c-3.899,0.002-7.091-3.177-7.101-7.068c-0.011-3.912,3.191-7.125,7.102-7.127
		c3.916,0,7.105,3.205,7.09,7.127C28.333,20.342,25.169,23.495,21.258,23.497z M20.276,14.709c-1.31,1.313-2.58,2.59-3.832,3.848
		c0.291,0.299,0.615,0.633,0.965,0.992c0.984-0.986,1.959-1.963,2.953-2.957c0.853,0.621,1.688,1.229,2.551,1.857
		c1.17-1.211,2.315-2.396,3.402-3.52c-0.338-0.396-0.634-0.74-0.912-1.063c-0.945,0.88-1.845,1.718-2.761,2.57
		C21.878,15.877,21.064,15.283,20.276,14.709z"/>
	<path fill="none" d="M33.779,2.697c1.381,1.384,2.749,2.759,4.104,4.115c-1.311,0-2.689,0-4.104,0
		C33.779,5.44,33.779,4.066,33.779,2.697z"/>
	<path fill="#BD632F" d="M20.276,14.709c0.788,0.574,1.602,1.168,2.368,1.729c0.916-0.854,1.815-1.689,2.761-2.57
		c0.278,0.323,0.573,0.668,0.912,1.063c-1.087,1.123-2.232,2.311-3.402,3.521c-0.861-0.628-1.697-1.237-2.551-1.858
		c-0.994,0.996-1.969,1.973-2.953,2.959c-0.351-0.361-0.674-0.694-0.965-0.994C17.696,17.297,18.968,16.024,20.276,14.709z"/>
</g>
</svg>
