<?xml version="1.0" encoding="utf-8"?>
<!-- Generator: Adobe Illustrator 16.0.0, SVG Export Plug-In . SVG Version: 6.00 Build 0)  -->
<!DOCTYPE svg PUBLIC "-//W3C//DTD SVG 1.1//EN" "http://www.w3.org/Graphics/SVG/1.1/DTD/svg11.dtd">
<svg version="1.1" id="Слой_1" xmlns="http://www.w3.org/2000/svg" xmlns:xlink="http://www.w3.org/1999/xlink" x="0px" y="0px"
	 width="50px" height="50px" viewBox="0 0 50 50" enable-background="new 0 0 50 50" xml:space="preserve">
<g>
	<g>
		<path fill="none" d="M49.998,23.146c0,8.952,0,17.902,0,26.854c-16.666,0-33.333,0-49.999,0c0-9.112,0-18.229,0-27.342
			c0.031,0.072,0.074,0.141,0.091,0.217c0.315,1.327,1.159,2.157,2.483,2.363c0.645,0.1,1.332-0.077,2.024-0.13
			c0,6.387,0,12.885,0,19.426c-0.19,0-0.351,0-0.51,0c-0.667,0-1.335-0.004-2.001,0.002c-0.348,0.002-0.563,0.179-0.565,0.533
			c-0.002,0.338,0.218,0.488,0.534,0.51c0.13,0.011,0.26,0.006,0.391,0.006c3.939,0,7.877,0,11.816,0
			c0.654,0,0.982-0.168,0.934-0.52c-0.076-0.555-0.541-0.471-0.918-0.473c-2.686-0.007-5.371-0.002-8.058-0.005
			c-0.187,0-0.372-0.02-0.569-0.03c-0.01-0.187-0.021-0.314-0.021-0.443C5.63,37.586,5.634,31.061,5.623,24.534
			c0-0.333,0.125-0.531,0.359-0.74c5.285-4.636,10.564-9.278,15.844-13.92c1.049-0.922,2.1-1.841,3.162-2.773
			c0.151,0.124,0.279,0.22,0.398,0.326c1.749,1.537,3.495,3.072,5.243,4.611c0.979,0.858,1.957,1.717,2.93,2.581
			c0.279,0.248,0.557,0.287,0.809-0.001c0.246-0.281,0.117-0.542-0.113-0.77c-0.049-0.045-0.1-0.086-0.148-0.129
			c-2.848-2.504-5.693-5.008-8.543-7.51c-0.509-0.449-0.664-0.449-1.159-0.013c-5.529,4.875-11.059,9.751-16.588,14.626
			c-1.146,1.012-2.29,2.029-3.447,3.029c-0.617,0.533-1.34,0.648-2.102,0.363c-0.757-0.284-1.156-0.883-1.251-1.666
			c-0.094-0.775,0.249-1.371,0.827-1.877C8.631,14.714,15.41,8.747,22.199,2.788c1.76-1.546,3.891-1.546,5.649-0.009
			c2.254,1.972,4.5,3.951,6.748,5.929c4.549,3.996,9.096,7.991,13.641,11.99c0.961,0.848,1.045,2.059,0.223,2.982
			c-0.75,0.841-1.99,0.859-2.918,0.045c-0.639-0.559-1.279-1.109-1.912-1.671c-0.277-0.248-0.557-0.281-0.813-0.005
			c-0.26,0.283-0.125,0.548,0.113,0.764c0.375,0.338,0.75,0.678,1.146,0.988c0.268,0.209,0.363,0.443,0.363,0.787
			c-0.012,4.623-0.01,9.243-0.01,13.866c0,0.67,0.145,0.914,0.533,0.91c0.385-0.004,0.512-0.235,0.512-0.93
			c0-4.281,0-8.563,0-12.843c0-0.186,0-0.373,0-0.611c0.152,0.059,0.225,0.086,0.299,0.115c1.771,0.687,3.396-0.008,4.111-1.75
			C49.912,23.274,49.959,23.212,49.998,23.146z M39.842,30.407c0.213-0.051,0.389-0.082,0.559-0.137
			c1.188-0.371,1.762-1.813,1.08-2.846c-0.25-0.38-0.311-0.712-0.295-1.146c0.045-1.284,0.021-2.57,0.016-3.855
			c-0.008-1.623-0.59-3.008-1.725-4.172c-0.148-0.151-0.264-0.365-0.322-0.572c-0.281-0.993-0.75-1.869-1.527-2.56
			c-0.396-0.35-0.811-0.264-0.93,0.23c-0.111,0.47-0.408,0.687-0.828,0.78c-0.363,0.082-0.734,0.166-1.105,0.177
			c-1.609,0.04-3.223-0.005-4.828,0.091c-2.762,0.167-5.202,2.148-5.688,4.875c-0.305,1.723-0.154,3.525-0.205,5.295
			c0,0.063,0.025,0.129,0.053,0.186c0.121,0.263,0.049,0.468-0.102,0.714c-0.672,1.098-0.142,2.489,1.08,2.893
			c0.166,0.055,0.339,0.094,0.485,0.133c0.025,0.043,0.041,0.056,0.041,0.07c-0.016,2.361,0.852,4.303,2.729,5.775
			c0.092,0.073,0.146,0.245,0.156,0.375c0.09,1.211-0.406,1.952-1.564,2.313c-1.553,0.48-3.113,0.934-4.663,1.418
			c-3.684,1.148-6.166,4.394-6.252,8.146c-0.02,0.778,0.095,0.893,0.896,0.893c4.639,0,9.276,0,13.915,0c5.908,0,11.814,0,17.723,0
			c0.764,0,0.893-0.131,0.869-0.869c-0.113-3.836-2.738-7.184-6.469-8.27c-1.498-0.437-2.986-0.896-4.477-1.354
			c-1.104-0.34-1.578-0.955-1.586-2.104c0-0.222,0.143-0.48,0.297-0.654c0.32-0.363,0.719-0.66,1.041-1.025
			C39.414,33.852,39.906,32.237,39.842,30.407z M14.943,35.568c0,2.424,0,4.846,0,7.27c0,0.712,0.143,0.962,0.539,0.957
			c0.391-0.006,0.514-0.239,0.514-0.979c0-4.861,0-9.725,0-14.586c0-0.584,0.09-0.674,0.675-0.68
			c0.569-0.005,1.138-0.003,1.707-0.003c1.122,0,2.243,0.007,3.366-0.002c0.521-0.004,0.832-0.43,0.555-0.776
			c-0.125-0.154-0.417-0.244-0.635-0.248c-1.674-0.021-3.349-0.017-5.024-0.008c-1.112,0.004-1.696,0.61-1.696,1.737
			C14.943,30.689,14.943,33.128,14.943,35.568z"/>
		<path fill="none" d="M0,21.876C0,14.585,0,7.294,0,0.001c16.666,0,33.333,0,49.999,0c0,7.161,0,14.323,0,21.484
			c-0.342-0.857-0.988-1.455-1.67-2.038c-1.139-0.971-2.252-1.973-3.377-2.961c-5.477-4.813-10.943-9.631-16.426-14.438
			c-2.207-1.935-4.944-1.904-7.155,0.041C14.803,7.876,8.242,13.671,1.66,19.441C0.883,20.124,0.222,20.837,0,21.876z"/>
		<path fill="#BD632F" d="M0,21.876c0.223-1.039,0.884-1.752,1.662-2.434C8.244,13.671,14.806,7.878,21.373,2.091
			c2.209-1.947,4.948-1.977,7.155-0.041c5.48,4.807,10.951,9.625,16.426,14.438c1.123,0.989,2.236,1.99,3.377,2.961
			c0.682,0.582,1.33,1.182,1.67,2.038c0,0.554,0,1.106,0,1.66c-0.039,0.065-0.086,0.129-0.115,0.198
			c-0.713,1.742-2.342,2.438-4.111,1.75c-0.072-0.027-0.146-0.055-0.299-0.113c0,0.238,0,0.424,0,0.611c0,4.28,0,8.561,0,12.842
			c0,0.692-0.129,0.926-0.512,0.93c-0.389,0.004-0.531-0.24-0.531-0.908c0-4.623-0.004-9.246,0.008-13.867
			c0-0.345-0.096-0.578-0.363-0.787c-0.396-0.311-0.771-0.649-1.145-0.988c-0.238-0.217-0.377-0.48-0.115-0.764
			c0.256-0.276,0.533-0.244,0.814,0.004c0.633,0.563,1.273,1.113,1.91,1.67c0.928,0.814,2.168,0.797,2.918-0.045
			c0.822-0.924,0.74-2.135-0.223-2.981c-4.545-4-9.092-7.996-13.641-11.991c-2.248-1.977-4.494-3.955-6.748-5.928
			c-1.758-1.535-3.889-1.537-5.649,0.009C15.412,8.746,8.632,14.714,1.843,20.673c-0.578,0.506-0.92,1.103-0.827,1.877
			c0.095,0.783,0.495,1.381,1.251,1.666c0.76,0.287,1.482,0.17,2.102-0.364c1.158-1,2.301-2.017,3.447-3.029
			c5.529-4.875,11.059-9.751,16.588-14.626c0.498-0.438,0.65-0.438,1.161,0.012c2.85,2.502,5.695,5.006,8.543,7.51
			c0.049,0.043,0.102,0.082,0.146,0.129c0.23,0.228,0.359,0.488,0.115,0.77c-0.25,0.288-0.529,0.249-0.809,0.001
			c-0.975-0.864-1.953-1.722-2.93-2.583c-1.748-1.537-3.494-3.074-5.243-4.611c-0.12-0.104-0.248-0.201-0.4-0.324
			c-1.063,0.931-2.111,1.852-3.16,2.772c-5.28,4.642-10.56,9.284-15.844,13.921c-0.236,0.207-0.361,0.406-0.361,0.74
			c0.012,6.527,0.009,13.053,0.01,19.578c0,0.129,0.012,0.258,0.02,0.445c0.198,0.01,0.385,0.028,0.57,0.028
			c2.686,0.002,5.371-0.002,8.057,0.006c0.379,0,0.844-0.081,0.92,0.474c0.049,0.352-0.278,0.518-0.935,0.518
			c-3.938,0-7.877,0-11.815,0c-0.131,0-0.261,0.004-0.392-0.006c-0.315-0.021-0.538-0.17-0.534-0.51
			c0.004-0.354,0.217-0.529,0.565-0.533c0.667-0.004,1.335,0,2.001-0.002c0.16,0,0.32,0,0.511,0c0-6.541,0-13.039,0-19.425
			c-0.69,0.054-1.38,0.231-2.024,0.13c-1.326-0.207-2.17-1.035-2.483-2.363c-0.019-0.074-0.06-0.143-0.091-0.216
			C0,22.397,0,22.136,0,21.876z"/>
		<path fill="#BD632F" d="M39.842,30.407c0.064,1.83-0.428,3.443-1.625,4.805c-0.322,0.365-0.721,0.66-1.043,1.025
			c-0.152,0.172-0.297,0.434-0.295,0.652c0.006,1.149,0.479,1.764,1.584,2.104c1.49,0.459,2.98,0.918,4.477,1.354
			c3.73,1.088,6.355,4.436,6.471,8.27c0.021,0.738-0.107,0.871-0.871,0.871c-5.906,0-11.814,0-17.723,0c-4.639,0-9.276,0-13.915,0
			c-0.802,0-0.914-0.113-0.896-0.895c0.086-3.755,2.569-6.996,6.252-8.146c1.551-0.484,3.111-0.938,4.662-1.418
			c1.158-0.356,1.656-1.1,1.564-2.313c-0.01-0.132-0.063-0.302-0.156-0.375c-1.875-1.472-2.74-3.414-2.729-5.775
			c0-0.014-0.016-0.027-0.039-0.068c-0.147-0.041-0.32-0.078-0.485-0.135c-1.223-0.402-1.752-1.793-1.08-2.893
			c0.149-0.244,0.222-0.451,0.101-0.713c-0.026-0.06-0.054-0.125-0.052-0.187c0.051-1.77-0.1-3.572,0.205-5.295
			c0.484-2.729,2.924-4.708,5.686-4.875c1.605-0.096,3.219-0.051,4.83-0.091c0.369-0.009,0.74-0.093,1.104-0.177
			c0.42-0.094,0.717-0.312,0.83-0.781c0.119-0.495,0.533-0.582,0.928-0.23c0.779,0.69,1.248,1.568,1.527,2.561
			c0.061,0.207,0.176,0.42,0.322,0.572c1.137,1.162,1.717,2.549,1.727,4.17c0.006,1.285,0.029,2.572-0.016,3.855
			c-0.016,0.438,0.045,0.768,0.295,1.146c0.682,1.032,0.105,2.475-1.082,2.848C40.23,30.325,40.053,30.357,39.842,30.407z
			 M16.984,48.311c10.459,0,20.85,0,31.274,0c-0.018-0.252-0.012-0.48-0.049-0.701c-0.551-3.189-2.414-5.248-5.449-6.27
			c-1.355-0.457-2.729-0.855-4.094-1.277c-0.363-0.113-0.729-0.219-1.096-0.326c-0.57,2.484-2.088,4.094-4.188,4.301
			c-3.17,0.313-4.947-1.332-5.68-4.287c-1.719,0.521-3.404,1.06-5.108,1.537c-1.458,0.41-2.66,1.195-3.654,2.313
			C17.758,44.934,17.119,46.497,16.984,48.311z M38.68,27.784c0.025,0,0.051,0,0.076,0c0-1.059-0.004-2.115,0.002-3.173
			c0.002-0.446-0.115-0.838-0.479-1.123c-0.291-0.229-0.537-0.319-0.863,0.035c-0.854,0.923-1.922,1.521-3.17,1.679
			c-1.014,0.127-2.039,0.147-3.063,0.172c-1.09,0.023-2.18-0.033-3.266,0.004c-0.938,0.03-1.295,0.447-1.301,1.396
			c-0.008,1.172,0.033,2.344-0.01,3.516c-0.094,2.511,1.063,4.363,2.996,5.81c1.15,0.856,2.436,1.309,3.891,1.039
			c2.406-0.447,4.908-3.021,5.158-5.455C38.789,30.396,38.68,29.083,38.68,27.784z M37.309,16.367
			c-0.773,0.666-1.264,0.894-2.309,0.927c-1.609,0.049-3.223,0.008-4.828,0.082c-2.115,0.098-3.678,1.149-4.594,3.039
			c-0.33,0.682-0.5,1.483-0.553,2.244c-0.088,1.276-0.023,2.563-0.023,3.895c0.228-0.05,0.395-0.084,0.547-0.115
			c0.271-1.441,1.08-2.114,2.508-2.115c1.66-0.003,3.318,0.01,4.979-0.007c1.434-0.015,2.662-0.549,3.682-1.551
			C38.473,21.03,38.74,18.227,37.309,16.367z M29.57,37.313c-0.252,0.52-0.518,1.053-0.766,1.594
			c-0.051,0.109-0.059,0.252-0.055,0.377c0.063,2.045,1.586,3.642,3.646,3.826c1.877,0.17,3.676-1.195,4.072-3.125
			c0.072-0.354,0.109-0.766-0.002-1.096c-0.178-0.537-0.49-1.031-0.738-1.525C33.68,38.438,31.596,38.444,29.57,37.313z
			 M39.975,26.495c0.043-0.02,0.09-0.039,0.133-0.059c0-1.592,0.039-3.182-0.016-4.771c-0.023-0.684-0.297-1.337-0.695-1.908
			c-0.289,0.861-0.566,1.697-0.859,2.572c0.992,0.508,1.387,1.397,1.311,2.543c-0.027,0.42-0.014,0.846,0.002,1.27
			C39.852,26.262,39.93,26.378,39.975,26.495z M39.816,29.331c0.623-0.125,0.893-0.444,0.85-0.959
			c-0.045-0.518-0.313-0.78-0.85-0.811C39.816,28.141,39.816,28.717,39.816,29.331z M25.553,29.325c0-0.613,0-1.188,0-1.768
			c-0.526,0.039-0.827,0.332-0.852,0.813C24.674,28.868,24.964,29.204,25.553,29.325z"/>
		<path fill="#BD632F" d="M14.943,35.568c0-2.439,0-4.879,0-7.318c0.002-1.125,0.586-1.731,1.697-1.737
			c1.675-0.009,3.352-0.013,5.025,0.01c0.217,0.002,0.509,0.092,0.634,0.248c0.278,0.348-0.033,0.772-0.556,0.777
			c-1.123,0.008-2.244,0.002-3.365,0.002c-0.569,0-1.139-0.005-1.708,0.002c-0.584,0.004-0.675,0.096-0.675,0.68
			c0,4.861,0,9.725,0,14.586c0,0.74-0.123,0.975-0.512,0.979c-0.397,0.007-0.539-0.245-0.539-0.956
			C14.943,40.413,14.943,37.991,14.943,35.568z"/>
		<path fill="none" d="M16.984,48.311c0.137-1.813,0.774-3.377,1.957-4.709c0.994-1.119,2.195-1.902,3.654-2.313
			c1.704-0.479,3.389-1.02,5.108-1.539c0.734,2.955,2.51,4.601,5.68,4.287c2.102-0.207,3.617-1.813,4.188-4.299
			c0.367,0.107,0.732,0.213,1.098,0.324c1.363,0.424,2.736,0.822,4.092,1.276c3.035,1.021,4.898,3.082,5.451,6.271
			c0.037,0.219,0.031,0.447,0.049,0.699C37.834,48.311,27.443,48.311,16.984,48.311z"/>
		<path fill="none" d="M37.309,16.367c1.432,1.856,1.166,4.663-0.594,6.396c-1.018,1.002-2.248,1.537-3.68,1.551
			c-1.66,0.017-3.32,0.004-4.98,0.006c-1.426,0.001-2.234,0.676-2.506,2.115c-0.155,0.033-0.321,0.067-0.549,0.115
			c0-1.33-0.063-2.617,0.024-3.894c0.053-0.76,0.224-1.563,0.552-2.244c0.916-1.89,2.479-2.94,4.594-3.038
			c1.605-0.074,3.221-0.033,4.828-0.082C36.047,17.261,36.533,17.033,37.309,16.367z"/>
		<path fill="none" d="M29.57,37.313c2.023,1.133,4.107,1.125,6.162,0.053c0.246,0.494,0.561,0.986,0.738,1.525
			c0.109,0.33,0.074,0.742,0,1.096c-0.396,1.928-2.195,3.293-4.072,3.125c-2.061-0.186-3.584-1.781-3.646-3.826
			c-0.004-0.127,0.002-0.268,0.055-0.379C29.055,38.364,29.32,37.831,29.57,37.313z"/>
		<path fill="none" d="M39.975,26.495c-0.045-0.117-0.121-0.233-0.127-0.354c-0.016-0.422-0.029-0.846-0.002-1.27
			c0.076-1.145-0.316-2.035-1.309-2.543c0.291-0.873,0.568-1.71,0.857-2.572c0.398,0.569,0.672,1.226,0.695,1.908
			c0.055,1.588,0.018,3.18,0.018,4.771C40.063,26.456,40.018,26.477,39.975,26.495z"/>
		<path fill="none" d="M39.816,29.331c0-0.614,0-1.19,0-1.77c0.537,0.029,0.805,0.293,0.85,0.811
			C40.709,28.887,40.439,29.206,39.816,29.331z"/>
		<path fill="none" d="M25.553,29.325c-0.588-0.121-0.878-0.457-0.852-0.955c0.025-0.479,0.326-0.772,0.852-0.813
			C25.553,28.137,25.553,28.712,25.553,29.325z"/>
	</g>
</g>
</svg>
